Computer Architecture/assignment/HW4/HW4/programming/simulation/qsim/PC_Calculator.msim.vcd
$comment
	File created using the following command:
		vcd file PC_Calculator.msim.vcd -direction
$end
$date
	Sun May 12 21:34:27 2019
$end
$version
	ModelSim Version 10.4b
$end
$timescale
	1ps
$end

$scope module PC_vlg_vec_tst $end
$var reg 1 ! Branch $end
$var reg 16 " BranchOffset [15:0] $end
$var reg 1 # CLK $end
$var reg 1 $ Jump $end
$var reg 26 % JumpAdderess [25:0] $end
$var reg 1 & Reset $end
$var wire 1 ' PC [31] $end
$var wire 1 ( PC [30] $end
$var wire 1 ) PC [29] $end
$var wire 1 * PC [28] $end
$var wire 1 + PC [27] $end
$var wire 1 , PC [26] $end
$var wire 1 - PC [25] $end
$var wire 1 . PC [24] $end
$var wire 1 / PC [23] $end
$var wire 1 0 PC [22] $end
$var wire 1 1 PC [21] $end
$var wire 1 2 PC [20] $end
$var wire 1 3 PC [19] $end
$var wire 1 4 PC [18] $end
$var wire 1 5 PC [17] $end
$var wire 1 6 PC [16] $end
$var wire 1 7 PC [15] $end
$var wire 1 8 PC [14] $end
$var wire 1 9 PC [13] $end
$var wire 1 : PC [12] $end
$var wire 1 ; PC [11] $end
$var wire 1 < PC [10] $end
$var wire 1 = PC [9] $end
$var wire 1 > PC [8] $end
$var wire 1 ? PC [7] $end
$var wire 1 @ PC [6] $end
$var wire 1 A PC [5] $end
$var wire 1 B PC [4] $end
$var wire 1 C PC [3] $end
$var wire 1 D PC [2] $end
$var wire 1 E PC [1] $end
$var wire 1 F PC [0] $end

$scope module i1 $end
$var wire 1 G gnd $end
$var wire 1 H vcc $end
$var wire 1 I unknown $end
$var tri1 1 J devclrn $end
$var tri1 1 K devpor $end
$var tri1 1 L devoe $end
$var wire 1 M ~QUARTUS_CREATED_GND~I_combout $end
$var wire 1 N CLK~input_o $end
$var wire 1 O CLK~inputCLKENA0_outclk $end
$var wire 1 P Jump~input_o $end
$var wire 1 Q BranchOffset[12]~input_o $end
$var wire 1 R BranchOffset[7]~input_o $end
$var wire 1 S BranchOffset[2]~input_o $end
$var wire 1 T BranchOffset[3]~input_o $end
$var wire 1 U BranchOffset[1]~input_o $end
$var wire 1 V BranchOffset[0]~input_o $end
$var wire 1 W BranchOffset[5]~input_o $end
$var wire 1 X BranchOffset[4]~input_o $end
$var wire 1 Y inst5|inst1|inst|Bit2|inst|And1~0_combout $end
$var wire 1 Z BranchOffset[6]~input_o $end
$var wire 1 [ BranchOffset[8]~input_o $end
$var wire 1 \ BranchOffset[10]~input_o $end
$var wire 1 ] BranchOffset[9]~input_o $end
$var wire 1 ^ inst5|inst2|inst|Bit0|inst|And1~0_combout $end
$var wire 1 _ BranchOffset[13]~input_o $end
$var wire 1 ` BranchOffset[11]~input_o $end
$var wire 1 a inst5|inst1|inst1|Bit2|inst|And1~0_combout $end
$var wire 1 b BranchOffset[15]~input_o $end
$var wire 1 c BranchOffset[14]~input_o $end
$var wire 1 d inst9|inst1_1|O1[31]~0_combout $end
$var wire 1 e Reset~input_o $end
$var wire 1 f Branch~input_o $end
$var wire 1 g inst6|inst|inst|inst|inst~q $end
$var wire 1 h inst9|inst1_1|O1[21]~1_combout $end
$var wire 1 i inst6|inst|inst|inst|inst5~feeder_combout $end
$var wire 1 j inst6|inst|inst|inst|inst5~q $end
$var wire 1 k inst6|inst|inst|inst|inst6~feeder_combout $end
$var wire 1 l inst6|inst|inst|inst|inst6~q $end
$var wire 1 m inst6|inst|inst|inst|inst7~feeder_combout $end
$var wire 1 n inst6|inst|inst|inst|inst7~q $end
$var wire 1 o JumpAdderess[25]~input_o $end
$var wire 1 p inst9|inst1_1|O1[27]~2_combout $end
$var wire 1 q inst6|inst|inst|inst1|inst~q $end
$var wire 1 r JumpAdderess[24]~input_o $end
$var wire 1 s inst9|inst1_1|O1[26]~3_combout $end
$var wire 1 t inst6|inst|inst|inst1|inst5~q $end
$var wire 1 u JumpAdderess[23]~input_o $end
$var wire 1 v inst9|inst1_1|O1[25]~4_combout $end
$var wire 1 w inst6|inst|inst|inst1|inst6~q $end
$var wire 1 x JumpAdderess[22]~input_o $end
$var wire 1 y inst9|inst1_1|O1[24]~5_combout $end
$var wire 1 z inst6|inst|inst|inst1|inst7~q $end
$var wire 1 { JumpAdderess[21]~input_o $end
$var wire 1 | inst9|inst1_1|O1[23]~6_combout $end
$var wire 1 } inst6|inst|inst1|inst|inst~q $end
$var wire 1 ~ JumpAdderess[20]~input_o $end
$var wire 1 !! inst9|inst1_1|O1[22]~7_combout $end
$var wire 1 "! inst6|inst|inst1|inst|inst5~q $end
$var wire 1 #! JumpAdderess[19]~input_o $end
$var wire 1 $! inst9|inst1_1|O1[21]~8_combout $end
$var wire 1 %! inst6|inst|inst1|inst|inst6~q $end
$var wire 1 &! JumpAdderess[18]~input_o $end
$var wire 1 '! inst9|inst1_1|O1[20]~9_combout $end
$var wire 1 (! inst6|inst|inst1|inst|inst7~q $end
$var wire 1 )! JumpAdderess[17]~input_o $end
$var wire 1 *! inst9|inst1_1|O1[19]~10_combout $end
$var wire 1 +! inst6|inst|inst1|inst1|inst~q $end
$var wire 1 ,! JumpAdderess[16]~input_o $end
$var wire 1 -! inst9|inst1_1|O1[18]~11_combout $end
$var wire 1 .! inst6|inst|inst1|inst1|inst5~q $end
$var wire 1 /! JumpAdderess[15]~input_o $end
$var wire 1 0! inst9|inst1_1|O1[17]~12_combout $end
$var wire 1 1! inst6|inst|inst1|inst1|inst6~q $end
$var wire 1 2! JumpAdderess[14]~input_o $end
$var wire 1 3! inst9|inst1_1|O1[16]~13_combout $end
$var wire 1 4! inst6|inst|inst1|inst1|inst7~q $end
$var wire 1 5! JumpAdderess[13]~input_o $end
$var wire 1 6! inst9|inst1_1|O1[15]~30_combout $end
$var wire 1 7! inst6|inst1|inst|inst|inst~q $end
$var wire 1 8! JumpAdderess[12]~input_o $end
$var wire 1 9! inst9|inst1_1|O1[14]~14_combout $end
$var wire 1 :! inst6|inst1|inst|inst|inst5~q $end
$var wire 1 ;! JumpAdderess[11]~input_o $end
$var wire 1 <! inst9|inst1_1|O1[13]~15_combout $end
$var wire 1 =! inst6|inst1|inst|inst|inst6~q $end
$var wire 1 >! inst5|inst1|inst|Bit0|inst|And1~0_combout $end
$var wire 1 ?! JumpAdderess[10]~input_o $end
$var wire 1 @! inst9|inst1_1|O1[12]~16_combout $end
$var wire 1 A! inst6|inst1|inst|inst|inst7~q $end
$var wire 1 B! JumpAdderess[9]~input_o $end
$var wire 1 C! inst9|inst1_1|O1[11]~17_combout $end
$var wire 1 D! inst6|inst1|inst|inst1|inst~q $end
$var wire 1 E! JumpAdderess[8]~input_o $end
$var wire 1 F! inst9|inst1_1|O1[10]~26_combout $end
$var wire 1 G! inst6|inst1|inst|inst1|inst5~q $end
$var wire 1 H! JumpAdderess[7]~input_o $end
$var wire 1 I! inst9|inst1_1|O1[9]~18_combout $end
$var wire 1 J! inst6|inst1|inst|inst1|inst6~q $end
$var wire 1 K! JumpAdderess[6]~input_o $end
$var wire 1 L! inst9|inst1_1|O1[8]~19_combout $end
$var wire 1 M! inst6|inst1|inst|inst1|inst7~q $end
$var wire 1 N! inst5|inst1|inst|Bit2|inst|And1~1_combout $end
$var wire 1 O! JumpAdderess[5]~input_o $end
$var wire 1 P! inst9|inst1_1|O1[7]~20_combout $end
$var wire 1 Q! inst6|inst1|inst1|inst|inst~q $end
$var wire 1 R! JumpAdderess[4]~input_o $end
$var wire 1 S! inst9|inst1_1|O1[6]~21_combout $end
$var wire 1 T! inst6|inst1|inst1|inst|inst5~q $end
$var wire 1 U! inst5|inst3|inst|Bit1|inst|X1~combout $end
$var wire 1 V! JumpAdderess[3]~input_o $end
$var wire 1 W! inst9|inst1_1|O1[5]~22_combout $end
$var wire 1 X! inst6|inst1|inst1|inst|inst6~q $end
$var wire 1 Y! JumpAdderess[2]~input_o $end
$var wire 1 Z! inst9|inst1_1|O1[4]~23_combout $end
$var wire 1 [! inst6|inst1|inst1|inst|inst7~feeder_combout $end
$var wire 1 \! inst6|inst1|inst1|inst|inst7~q $end
$var wire 1 ]! JumpAdderess[1]~input_o $end
$var wire 1 ^! inst9|inst1_1|O1[3]~24_combout $end
$var wire 1 _! inst6|inst1|inst1|inst1|inst~q $end
$var wire 1 `! JumpAdderess[0]~input_o $end
$var wire 1 a! inst9|inst1_1|O1[2]~25_combout $end
$var wire 1 b! inst6|inst1|inst1|inst1|inst5~q $end
$var wire 1 c! inst6|inst1|inst1|inst1|inst6~q $end
$var wire 1 d! inst6|inst1|inst1|inst1|inst7~feeder_combout $end
$var wire 1 e! inst6|inst1|inst1|inst1|inst7~q $end
$var wire 1 f! inst9|inst1_1|A2 [31] $end
$var wire 1 g! inst9|inst1_1|A2 [30] $end
$var wire 1 h! inst9|inst1_1|A2 [29] $end
$var wire 1 i! inst9|inst1_1|A2 [28] $end
$var wire 1 j! inst9|inst1_1|A2 [27] $end
$var wire 1 k! inst9|inst1_1|A2 [26] $end
$var wire 1 l! inst9|inst1_1|A2 [25] $end
$var wire 1 m! inst9|inst1_1|A2 [24] $end
$var wire 1 n! inst9|inst1_1|A2 [23] $end
$var wire 1 o! inst9|inst1_1|A2 [22] $end
$var wire 1 p! inst9|inst1_1|A2 [21] $end
$var wire 1 q! inst9|inst1_1|A2 [20] $end
$var wire 1 r! inst9|inst1_1|A2 [19] $end
$var wire 1 s! inst9|inst1_1|A2 [18] $end
$var wire 1 t! inst9|inst1_1|A2 [17] $end
$var wire 1 u! inst9|inst1_1|A2 [16] $end
$var wire 1 v! inst9|inst1_1|A2 [15] $end
$var wire 1 w! inst9|inst1_1|A2 [14] $end
$var wire 1 x! inst9|inst1_1|A2 [13] $end
$var wire 1 y! inst9|inst1_1|A2 [12] $end
$var wire 1 z! inst9|inst1_1|A2 [11] $end
$var wire 1 {! inst9|inst1_1|A2 [10] $end
$var wire 1 |! inst9|inst1_1|A2 [9] $end
$var wire 1 }! inst9|inst1_1|A2 [8] $end
$var wire 1 ~! inst9|inst1_1|A2 [7] $end
$var wire 1 !" inst9|inst1_1|A2 [6] $end
$var wire 1 "" inst9|inst1_1|A2 [5] $end
$var wire 1 #" inst9|inst1_1|A2 [4] $end
$var wire 1 $" inst9|inst1_1|A2 [3] $end
$var wire 1 %" inst9|inst1_1|A2 [2] $end
$var wire 1 &" inst9|inst1_1|A2 [1] $end
$var wire 1 '" inst9|inst1_1|A2 [0] $end
$upscope $end
$upscope $end
$enddefinitions $end
#0
$dumpvars
0!
b1 "
0#
1$
b1000000000000000010 %
1&
0F
0E
0D
0C
0B
0A
0@
0?
0>
0=
0<
0;
0:
09
08
07
06
05
04
03
02
01
00
0/
0.
0-
0,
0+
0*
0)
0(
0'
0G
1H
xI
1J
1K
1L
0M
0N
0O
1P
0Q
0R
0S
0T
0U
1V
0W
0X
0Y
0Z
0[
0\
0]
0^
0_
0`
0a
0b
0c
1d
1e
0f
0g
0h
0i
0j
0k
0l
0m
0n
0o
0p
0q
0r
0s
0t
0u
0v
0w
0x
0y
0z
0{
0|
0}
0~
0!!
0"!
0#!
0$!
0%!
1&!
1'!
0(!
0)!
0*!
0+!
0,!
0-!
0.!
0/!
00!
01!
02!
03!
04!
05!
06!
07!
08!
09!
0:!
0;!
0<!
0=!
0>!
0?!
0@!
0A!
0B!
0C!
0D!
0E!
0F!
0G!
0H!
0I!
0J!
0K!
0L!
0M!
0N!
0O!
0P!
0Q!
0R!
0S!
0T!
0U!
0V!
0W!
0X!
0Y!
0Z!
0[!
0\!
1]!
1^!
0_!
0`!
0a!
0b!
0c!
0d!
0e!
z'"
0&"
z%"
z$"
z#"
z""
z!"
z~!
z}!
z|!
z{!
zz!
zy!
zx!
zw!
zv!
zu!
zt!
zs!
zr!
zq!
zp!
zo!
zn!
zm!
zl!
zk!
zj!
zi!
zh!
zg!
zf!
$end
#5000
1#
1N
1O
1_!
1(!
12
1C
#10000
1!
0$
0#
1f
0P
0N
0O
0'!
0d
#15000
1#
1N
1O
0(!
02
#20000
0!
0#
0f
0N
0O
0^!
#25000
1#
1N
1O
0_!
0C
#30000
1$
1!
0#
1P
1f
0N
0O
1&"
1a!
1Z!
1C!
10!
1$!
1y
1v
1^!
1W!
1S!
1P!
1L!
1I!
1F!
1@!
1<!
19!
16!
13!
1-!
1*!
1'!
1!!
1|
1s
1p
1d
1[!
1d!
#35000
1#
1N
1O
1e!
1c!
1b!
1_!
1\!
1X!
1T!
1Q!
1M!
1J!
1G!
1D!
1A!
1=!
1:!
17!
14!
11!
1.!
1+!
1(!
1%!
1"!
1}
1z
1w
1t
1q
1n
1l
1j
1g
1'
1(
1)
1*
1+
1,
1-
1.
1/
10
11
12
13
14
15
16
17
18
19
1:
1;
1<
1=
1>
1?
1@
1A
1B
1C
1D
1E
1F
#40000
0$
0!
0#
0P
0f
0N
0O
0&"
0a!
0Z!
0C!
00!
0$!
0y
0v
0^!
0W!
0S!
0P!
0L!
0I!
0F!
0@!
0<!
09!
06!
03!
0-!
0*!
0'!
0!!
0|
0s
0p
0d
0[!
0d!
#45000
1#
1N
1O
0e!
0c!
0b!
0_!
0\!
0X!
0T!
0Q!
0M!
0J!
0G!
0D!
0A!
0=!
0:!
07!
04!
01!
0.!
0+!
0(!
0%!
0"!
0}
0z
0w
0t
0q
0n
0l
0j
0g
0'
0(
0)
0*
0+
0,
0-
0.
0/
00
01
02
03
04
05
06
07
08
09
0:
0;
0<
0=
0>
0?
0@
0A
0B
0C
0D
0E
0F
#50000
0#
0N
0O
#55000
1#
1N
1O
#60000
0#
0N
0O
#65000
1#
1N
1O
#70000
0#
0N
0O
#75000
1#
1N
1O
#80000
0#
0N
0O
#85000
1#
1N
1O
#90000
0#
0N
0O
#95000
1#
1N
1O
#100000
0#
0N
0O
#105000
1#
1N
1O
#110000
0#
0N
0O
#115000
1#
1N
1O
#120000
0#
0N
0O
#125000
1#
1N
1O
#130000
0#
0N
0O
#135000
1#
1N
1O
#140000
0#
0N
0O
#145000
1#
1N
1O
#150000
0#
0N
0O
#155000
1#
1N
1O
#160000
0#
0N
0O
#165000
1#
1N
1O
#170000
0#
0N
0O
#175000
1#
1N
1O
#180000
0#
0N
0O
#185000
1#
1N
1O
#190000
0#
0N
0O
#195000
1#
1N
1O
#200000
0#
0N
0O
#205000
1#
1N
1O
#210000
0#
0N
0O
#215000
1#
1N
1O
#220000
0#
0N
0O
#225000
1#
1N
1O
#230000
0#
0N
0O
#235000
1#
1N
1O
#240000
0#
0N
0O
#245000
1#
1N
1O
#250000
0#
0N
0O
#255000
1#
1N
1O
#260000
0#
0N
0O
#265000
1#
1N
1O
#270000
0#
0N
0O
#275000
1#
1N
1O
#280000
0#
0N
0O
#285000
1#
1N
1O
#290000
0#
0N
0O
#295000
1#
1N
1O
#300000
0#
0N
0O
#305000
1#
1N
1O
#310000
0#
0N
0O
#315000
1#
1N
1O
#320000
0#
0N
0O
#325000
1#
1N
1O
#330000
0#
0N
0O
#335000
1#
1N
1O
#340000
0#
0N
0O
#345000
1#
1N
1O
#350000
0#
0N
0O
#355000
1#
1N
1O
#360000
0#
0N
0O
#365000
1#
1N
1O
#370000
0#
0N
0O
#375000
1#
1N
1O
#380000
0#
0N
0O
#385000
1#
1N
1O
#390000
0#
0N
0O
#395000
1#
1N
1O
#400000
0#
0N
0O
#405000
1#
1N
1O
#410000
0#
0N
0O
#415000
1#
1N
1O
#420000
0#
0N
0O
#425000
1#
1N
1O
#430000
0#
0N
0O
#435000
1#
1N
1O
#440000
0#
0N
0O
#445000
1#
1N
1O
#450000
0#
0N
0O
#455000
1#
1N
1O
#460000
0#
0N
0O
#465000
1#
1N
1O
#470000
0#
0N
0O
#475000
1#
1N
1O
#480000
0#
0N
0O
#485000
1#
1N
1O
#490000
0#
0N
0O
#495000
1#
1N
1O
#500000
0#
0N
0O
#505000
1#
1N
1O
#510000
0#
0N
0O
#515000
1#
1N
1O
#520000
0#
0N
0O
#525000
1#
1N
1O
#530000
0#
0N
0O
#535000
1#
1N
1O
#540000
0#
0N
0O
#545000
1#
1N
1O
#550000
0#
0N
0O
#555000
1#
1N
1O
#560000
0#
0N
0O
#565000
1#
1N
1O
#570000
0#
0N
0O
#575000
1#
1N
1O
#580000
0#
0N
0O
#585000
1#
1N
1O
#590000
0#
0N
0O
#595000
1#
1N
1O
#600000
0#
0N
0O
#605000
1#
1N
1O
#610000
0#
0N
0O
#615000
1#
1N
1O
#620000
0#
0N
0O
#625000
1#
1N
1O
#630000
0#
0N
0O
#635000
1#
1N
1O
#640000
0#
0N
0O
#645000
1#
1N
1O
#650000
0#
0N
0O
#655000
1#
1N
1O
#660000
0#
0N
0O
#665000
1#
1N
1O
#670000
0#
0N
0O
#675000
1#
1N
1O
#680000
0#
0N
0O
#685000
1#
1N
1O
#690000
0#
0N
0O
#695000
1#
1N
1O
#700000
0#
0N
0O
#705000
1#
1N
1O
#710000
0#
0N
0O
#715000
1#
1N
1O
#720000
0#
0N
0O
#725000
1#
1N
1O
#730000
0#
0N
0O
#735000
1#
1N
1O
#740000
0#
0N
0O
#745000
1#
1N
1O
#750000
0#
0N
0O
#755000
1#
1N
1O
#760000
0#
0N
0O
#765000
1#
1N
1O
#770000
0#
0N
0O
#775000
1#
1N
1O
#780000
0#
0N
0O
#785000
1#
1N
1O
#790000
0#
0N
0O
#795000
1#
1N
1O
#800000
0#
0N
0O
#805000
1#
1N
1O
#810000
0#
0N
0O
#815000
1#
1N
1O
#820000
0#
0N
0O
#825000
1#
1N
1O
#830000
0#
0N
0O
#835000
1#
1N
1O
#840000
0#
0N
0O
#845000
1#
1N
1O
#850000
0#
0N
0O
#855000
1#
1N
1O
#860000
0#
0N
0O
#865000
1#
1N
1O
#870000
0#
0N
0O
#875000
1#
1N
1O
#880000
0#
0N
0O
#885000
1#
1N
1O
#890000
0#
0N
0O
#895000
1#
1N
1O
#900000
0#
0N
0O
#905000
1#
1N
1O
#910000
0#
0N
0O
#915000
1#
1N
1O
#920000
0#
0N
0O
#925000
1#
1N
1O
#930000
0#
0N
0O
#935000
1#
1N
1O
#940000
0#
0N
0O
#945000
1#
1N
1O
#950000
0#
0N
0O
#955000
1#
1N
1O
#960000
0#
0N
0O
#965000
1#
1N
1O
#970000
0#
0N
0O
#975000
1#
1N
1O
#980000
0#
0N
0O
#985000
1#
1N
1O
#990000
0#
0N
0O
#995000
1#
1N
1O
