Computer Architecture/assignment/HW4/HW4/programming/simulation/qsim/PC_Calculator.msim.vcd
$comment
	File created using the following command:
		vcd file PC_Calculator.msim.vcd -direction
$end
$date
	Tue Jun 18 14:43:40 2019
$end
$version
	ModelSim Version 10.4b
$end
$timescale
	1ps
$end

$scope module PC_vlg_vec_tst $end
$var reg 1 ! Branch $end
$var reg 16 " BranchOffset [15:0] $end
$var reg 1 # CLK $end
$var reg 1 $ Jump $end
$var reg 26 % JumpAdderess [25:0] $end
$var reg 1 & Reset $end
$var wire 1 ' PC [31] $end
$var wire 1 ( PC [30] $end
$var wire 1 ) PC [29] $end
$var wire 1 * PC [28] $end
$var wire 1 + PC [27] $end
$var wire 1 , PC [26] $end
$var wire 1 - PC [25] $end
$var wire 1 . PC [24] $end
$var wire 1 / PC [23] $end
$var wire 1 0 PC [22] $end
$var wire 1 1 PC [21] $end
$var wire 1 2 PC [20] $end
$var wire 1 3 PC [19] $end
$var wire 1 4 PC [18] $end
$var wire 1 5 PC [17] $end
$var wire 1 6 PC [16] $end
$var wire 1 7 PC [15] $end
$var wire 1 8 PC [14] $end
$var wire 1 9 PC [13] $end
$var wire 1 : PC [12] $end
$var wire 1 ; PC [11] $end
$var wire 1 < PC [10] $end
$var wire 1 = PC [9] $end
$var wire 1 > PC [8] $end
$var wire 1 ? PC [7] $end
$var wire 1 @ PC [6] $end
$var wire 1 A PC [5] $end
$var wire 1 B PC [4] $end
$var wire 1 C PC [3] $end
$var wire 1 D PC [2] $end
$var wire 1 E PC [1] $end
$var wire 1 F PC [0] $end

$scope module i1 $end
$var wire 1 G gnd $end
$var wire 1 H vcc $end
$var wire 1 I unknown $end
$var tri1 1 J devclrn $end
$var tri1 1 K devpor $end
$var tri1 1 L devoe $end
$var wire 1 M CLK~input_o $end
$var wire 1 N ~QUARTUS_CREATED_GND~I_combout $end
$var wire 1 O Jump~input_o $end
$var wire 1 P BranchOffset[13]~input_o $end
$var wire 1 Q BranchOffset[14]~input_o $end
$var wire 1 R BranchOffset[11]~input_o $end
$var wire 1 S BranchOffset[15]~input_o $end
$var wire 1 T BranchOffset[12]~input_o $end
$var wire 1 U BranchOffset[4]~input_o $end
$var wire 1 V BranchOffset[1]~input_o $end
$var wire 1 W BranchOffset[5]~input_o $end
$var wire 1 X BranchOffset[2]~input_o $end
$var wire 1 Y BranchOffset[0]~input_o $end
$var wire 1 Z BranchOffset[3]~input_o $end
$var wire 1 [ inst5|inst|inst1|Bit3|inst|And1~0_combout $end
$var wire 1 \ BranchOffset[8]~input_o $end
$var wire 1 ] BranchOffset[6]~input_o $end
$var wire 1 ^ BranchOffset[9]~input_o $end
$var wire 1 _ BranchOffset[7]~input_o $end
$var wire 1 ` BranchOffset[10]~input_o $end
$var wire 1 a inst5|inst2|inst|Bit0|inst|And1~0_combout $end
$var wire 1 b inst1|auto_generated|l1_w22_n0_mux_dataout~0_combout $end
$var wire 1 c Reset~input_o $end
$var wire 1 d Branch~input_o $end
$var wire 1 e inst1|auto_generated|l1_w1_n0_mux_dataout~0_combout $end
$var wire 1 f inst1|auto_generated|l1_w28_n0_mux_dataout~0_combout $end
$var wire 1 g inst1|auto_generated|l1_w30_n0_mux_dataout~0_combout $end
$var wire 1 h JumpAdderess[25]~input_o $end
$var wire 1 i inst1|auto_generated|l1_w27_n0_mux_dataout~0_combout $end
$var wire 1 j JumpAdderess[24]~input_o $end
$var wire 1 k inst1|auto_generated|l1_w26_n0_mux_dataout~0_combout $end
$var wire 1 l JumpAdderess[23]~input_o $end
$var wire 1 m inst1|auto_generated|l1_w25_n0_mux_dataout~0_combout $end
$var wire 1 n JumpAdderess[22]~input_o $end
$var wire 1 o inst1|auto_generated|l1_w24_n0_mux_dataout~0_combout $end
$var wire 1 p JumpAdderess[21]~input_o $end
$var wire 1 q inst1|auto_generated|l1_w23_n0_mux_dataout~0_combout $end
$var wire 1 r JumpAdderess[20]~input_o $end
$var wire 1 s inst1|auto_generated|l1_w22_n0_mux_dataout~1_combout $end
$var wire 1 t JumpAdderess[19]~input_o $end
$var wire 1 u inst1|auto_generated|l1_w21_n0_mux_dataout~0_combout $end
$var wire 1 v JumpAdderess[18]~input_o $end
$var wire 1 w inst1|auto_generated|l1_w20_n0_mux_dataout~0_combout $end
$var wire 1 x JumpAdderess[17]~input_o $end
$var wire 1 y inst1|auto_generated|l1_w19_n0_mux_dataout~0_combout $end
$var wire 1 z JumpAdderess[16]~input_o $end
$var wire 1 { inst1|auto_generated|l1_w18_n0_mux_dataout~0_combout $end
$var wire 1 | inst5|inst1|inst1|Bit2|inst|And1~0_combout $end
$var wire 1 } JumpAdderess[15]~input_o $end
$var wire 1 ~ inst1|auto_generated|l1_w17_n0_mux_dataout~0_combout $end
$var wire 1 !! inst5|inst1|inst1|Bit0|inst|X1~combout $end
$var wire 1 "! JumpAdderess[14]~input_o $end
$var wire 1 #! inst1|auto_generated|l1_w16_n0_mux_dataout~0_combout $end
$var wire 1 $! JumpAdderess[13]~input_o $end
$var wire 1 %! inst1|auto_generated|l1_w15_n0_mux_dataout~0_combout $end
$var wire 1 &! inst1|auto_generated|l1_w15_n0_mux_dataout~1_combout $end
$var wire 1 '! JumpAdderess[12]~input_o $end
$var wire 1 (! inst1|auto_generated|l1_w14_n0_mux_dataout~0_combout $end
$var wire 1 )! JumpAdderess[11]~input_o $end
$var wire 1 *! inst1|auto_generated|l1_w13_n0_mux_dataout~0_combout $end
$var wire 1 +! inst5|inst1|inst|Bit0|inst|And1~0_combout $end
$var wire 1 ,! JumpAdderess[10]~input_o $end
$var wire 1 -! inst1|auto_generated|l1_w12_n0_mux_dataout~0_combout $end
$var wire 1 .! JumpAdderess[9]~input_o $end
$var wire 1 /! inst5|inst2|inst1|Bit3|inst|X1~combout $end
$var wire 1 0! inst1|auto_generated|l1_w11_n0_mux_dataout~0_combout $end
$var wire 1 1! JumpAdderess[8]~input_o $end
$var wire 1 2! inst5|inst2|inst1|Bit2|inst|X1~combout $end
$var wire 1 3! inst1|auto_generated|l1_w10_n0_mux_dataout~0_combout $end
$var wire 1 4! JumpAdderess[7]~input_o $end
$var wire 1 5! inst1|auto_generated|l1_w9_n0_mux_dataout~0_combout $end
$var wire 1 6! JumpAdderess[6]~input_o $end
$var wire 1 7! inst1|auto_generated|l1_w8_n0_mux_dataout~0_combout $end
$var wire 1 8! inst5|inst3|inst|Bit2|inst|And1~0_combout $end
$var wire 1 9! JumpAdderess[5]~input_o $end
$var wire 1 :! inst1|auto_generated|l1_w7_n0_mux_dataout~0_combout $end
$var wire 1 ;! JumpAdderess[4]~input_o $end
$var wire 1 <! inst5|inst3|inst|Bit2|inst|X1~combout $end
$var wire 1 =! inst1|auto_generated|l1_w6_n0_mux_dataout~0_combout $end
$var wire 1 >! inst5|inst3|inst|Bit1|inst|X1~combout $end
$var wire 1 ?! JumpAdderess[3]~input_o $end
$var wire 1 @! inst1|auto_generated|l1_w5_n0_mux_dataout~0_combout $end
$var wire 1 A! JumpAdderess[2]~input_o $end
$var wire 1 B! inst1|auto_generated|l1_w4_n0_mux_dataout~0_combout $end
$var wire 1 C! JumpAdderess[1]~input_o $end
$var wire 1 D! inst1|auto_generated|l1_w3_n0_mux_dataout~0_combout $end
$var wire 1 E! JumpAdderess[0]~input_o $end
$var wire 1 F! inst1|auto_generated|l1_w2_n0_mux_dataout~0_combout $end
$var wire 1 G! inst1|auto_generated|l1_w1_n0_mux_dataout~1_combout $end
$upscope $end
$upscope $end
$enddefinitions $end
#0
$dumpvars
0!
b1 "
0#
1$
b1000000000000000010 %
1&
0F
0E
0D
1C
0B
0A
0@
0?
0>
0=
0<
0;
0:
09
08
07
06
05
04
03
12
01
00
0/
0.
0-
0,
0+
0*
0)
1(
0'
0G
1H
xI
1J
1K
1L
0M
0N
1O
0P
0Q
0R
0S
0T
0U
0V
0W
0X
1Y
0Z
0[
0\
0]
0^
0_
0`
0a
0b
1c
0d
0e
0f
1g
0h
0i
0j
0k
0l
0m
0n
0o
0p
0q
0r
0s
0t
0u
1v
1w
0x
0y
0z
0{
0|
0}
0~
0!!
0"!
0#!
0$!
0%!
0&!
0'!
0(!
0)!
0*!
0+!
0,!
0-!
0.!
0/!
00!
01!
02!
03!
04!
05!
06!
07!
08!
09!
0:!
0;!
0<!
0=!
0>!
0?!
0@!
0A!
0B!
1C!
1D!
0E!
0F!
0G!
$end
#5000
1#
1M
#10000
1!
0$
0#
1d
0O
0M
1e
0w
0g
0(
02
#15000
1#
1M
#20000
0!
0#
0d
0M
0e
0D!
0C
#25000
1#
1M
#30000
1$
1!
0#
1O
1d
0M
1%!
1e
1F!
1D!
1B!
1@!
1=!
1:!
17!
15!
13!
10!
1-!
1*!
1(!
1#!
1~
1{
1y
1w
1u
1s
1q
1o
1m
1k
1i
1g
1(
1+
1,
1-
1.
1/
10
11
12
13
14
15
16
18
19
1:
1;
1<
1=
1>
1?
1@
1A
1B
1C
1D
1G!
1&!
1f
1'
1)
1*
17
1E
1F
#35000
1#
1M
#40000
0$
0!
0#
0O
0d
0M
0%!
0e
0F!
0D!
0B!
0@!
0=!
0:!
07!
05!
03!
00!
0-!
0*!
0(!
0#!
0~
0{
0y
0w
0u
0s
0q
0o
0m
0k
0i
0g
0G!
0f
0'
0)
0*
0E
0F
0(
0+
0,
0-
0.
0/
00
01
02
03
04
05
06
08
09
0:
0;
0<
0=
0>
0?
0@
0A
0B
0C
0D
0&!
07
#45000
1#
1M
#50000
0#
0M
#55000
1#
1M
#60000
0#
0M
#65000
1#
1M
#70000
0#
0M
#75000
1#
1M
#80000
0#
0M
#85000
1#
1M
#90000
0#
0M
#95000
1#
1M
#100000
0#
0M
#105000
1#
1M
#110000
0#
0M
#115000
1#
1M
#120000
0#
0M
#125000
1#
1M
#130000
0#
0M
#135000
1#
1M
#140000
0#
0M
#145000
1#
1M
#150000
0#
0M
#155000
1#
1M
#160000
0#
0M
#165000
1#
1M
#170000
0#
0M
#175000
1#
1M
#180000
0#
0M
#185000
1#
1M
#190000
0#
0M
#195000
1#
1M
#200000
0#
0M
#205000
1#
1M
#210000
0#
0M
#215000
1#
1M
#220000
0#
0M
#225000
1#
1M
#230000
0#
0M
#235000
1#
1M
#240000
0#
0M
#245000
1#
1M
#250000
0#
0M
#255000
1#
1M
#260000
0#
0M
#265000
1#
1M
#270000
0#
0M
#275000
1#
1M
#280000
0#
0M
#285000
1#
1M
#290000
0#
0M
#295000
1#
1M
#300000
0#
0M
#305000
1#
1M
#310000
0#
0M
#315000
1#
1M
#320000
0#
0M
#325000
1#
1M
#330000
0#
0M
#335000
1#
1M
#340000
0#
0M
#345000
1#
1M
#350000
0#
0M
#355000
1#
1M
#360000
0#
0M
#365000
1#
1M
#370000
0#
0M
#375000
1#
1M
#380000
0#
0M
#385000
1#
1M
#390000
0#
0M
#395000
1#
1M
#400000
0#
0M
#405000
1#
1M
#410000
0#
0M
#415000
1#
1M
#420000
0#
0M
#425000
1#
1M
#430000
0#
0M
#435000
1#
1M
#440000
0#
0M
#445000
1#
1M
#450000
0#
0M
#455000
1#
1M
#460000
0#
0M
#465000
1#
1M
#470000
0#
0M
#475000
1#
1M
#480000
0#
0M
#485000
1#
1M
#490000
0#
0M
#495000
1#
1M
#500000
0#
0M
#505000
1#
1M
#510000
0#
0M
#515000
1#
1M
#520000
0#
0M
#525000
1#
1M
#530000
0#
0M
#535000
1#
1M
#540000
0#
0M
#545000
1#
1M
#550000
0#
0M
#555000
1#
1M
#560000
0#
0M
#565000
1#
1M
#570000
0#
0M
#575000
1#
1M
#580000
0#
0M
#585000
1#
1M
#590000
0#
0M
#595000
1#
1M
#600000
0#
0M
#605000
1#
1M
#610000
0#
0M
#615000
1#
1M
#620000
0#
0M
#625000
1#
1M
#630000
0#
0M
#635000
1#
1M
#640000
0#
0M
#645000
1#
1M
#650000
0#
0M
#655000
1#
1M
#660000
0#
0M
#665000
1#
1M
#670000
0#
0M
#675000
1#
1M
#680000
0#
0M
#685000
1#
1M
#690000
0#
0M
#695000
1#
1M
#700000
0#
0M
#705000
1#
1M
#710000
0#
0M
#715000
1#
1M
#720000
0#
0M
#725000
1#
1M
#730000
0#
0M
#735000
1#
1M
#740000
0#
0M
#745000
1#
1M
#750000
0#
0M
#755000
1#
1M
#760000
0#
0M
#765000
1#
1M
#770000
0#
0M
#775000
1#
1M
#780000
0#
0M
#785000
1#
1M
#790000
0#
0M
#795000
1#
1M
#800000
0#
0M
#805000
1#
1M
#810000
0#
0M
#815000
1#
1M
#820000
0#
0M
#825000
1#
1M
#830000
0#
0M
#835000
1#
1M
#840000
0#
0M
#845000
1#
1M
#850000
0#
0M
#855000
1#
1M
#860000
0#
0M
#865000
1#
1M
#870000
0#
0M
#875000
1#
1M
#880000
0#
0M
#885000
1#
1M
#890000
0#
0M
#895000
1#
1M
#900000
0#
0M
#905000
1#
1M
#910000
0#
0M
#915000
1#
1M
#920000
0#
0M
#925000
1#
1M
#930000
0#
0M
#935000
1#
1M
#940000
0#
0M
#945000
1#
1M
#950000
0#
0M
#955000
1#
1M
#960000
0#
0M
#965000
1#
1M
#970000
0#
0M
#975000
1#
1M
#980000
0#
0M
#985000
1#
1M
#990000
0#
0M
#995000
1#
1M
