Computer Architecture/assignment/HW5/programming/Ashkan Mirzaei/PC/simulation/qsim/PC.msim.vcd
$comment
	File created using the following command:
		vcd file PC.msim.vcd -direction
$end
$date
	Thu May 16 14:36:37 2019
$end
$version
	ModelSim Version 10.4b
$end
$timescale
	1ps
$end

$scope module PC_vlg_vec_tst $end
$var reg 1 ! Branch $end
$var reg 16 " BranchOffset [15:0] $end
$var reg 1 # CLK $end
$var reg 1 $ Jump $end
$var reg 26 % JumpAddress [25:0] $end
$var reg 1 & Reset $end
$var wire 1 ' PC0 $end
$var wire 1 ( PC1 $end
$var wire 1 ) PC2 $end
$var wire 1 * PC3 $end
$var wire 1 + PC4 $end
$var wire 1 , PC5 $end
$var wire 1 - PC6 $end
$var wire 1 . PC7 $end
$var wire 1 / PC8 $end
$var wire 1 0 PC9 $end
$var wire 1 1 PC10 $end
$var wire 1 2 PC11 $end
$var wire 1 3 PC12 $end
$var wire 1 4 PC13 $end
$var wire 1 5 PC14 $end
$var wire 1 6 PC15 $end
$var wire 1 7 PC16 $end
$var wire 1 8 PC17 $end
$var wire 1 9 PC18 $end
$var wire 1 : PC19 $end
$var wire 1 ; PC20 $end
$var wire 1 < PC21 $end
$var wire 1 = PC22 $end
$var wire 1 > PC23 $end
$var wire 1 ? PC24 $end
$var wire 1 @ PC25 $end
$var wire 1 A PC26 $end
$var wire 1 B PC27 $end
$var wire 1 C PC28 $end
$var wire 1 D PC29 $end
$var wire 1 E PC30 $end
$var wire 1 F PC31 $end

$scope module i1 $end
$var wire 1 G gnd $end
$var wire 1 H vcc $end
$var wire 1 I unknown $end
$var tri1 1 J devclrn $end
$var tri1 1 K devpor $end
$var tri1 1 L devoe $end
$var wire 1 M ~QUARTUS_CREATED_GND~I_combout $end
$var wire 1 N CLK~input_o $end
$var wire 1 O CLK~inputCLKENA0_outclk $end
$var wire 1 P BranchOffset[15]~input_o $end
$var wire 1 Q JumpAddress[23]~input_o $end
$var wire 1 R JumpAddress[22]~input_o $end
$var wire 1 S Jump~input_o $end
$var wire 1 T JumpAddress[21]~input_o $end
$var wire 1 U Branch~input_o $end
$var wire 1 V JumpAddress[20]~input_o $end
$var wire 1 W JumpAddress[19]~input_o $end
$var wire 1 X JumpAddress[7]~input_o $end
$var wire 1 Y BranchOffset[5]~input_o $end
$var wire 1 Z BranchOffset[2]~input_o $end
$var wire 1 [ BranchOffset[0]~input_o $end
$var wire 1 \ JumpAddress[2]~input_o $end
$var wire 1 ] JumpAddress[0]~input_o $end
$var wire 1 ^ inst12|auto_generated|l2_w2_n0_mux_dataout~0_combout $end
$var wire 1 _ Reset~input_o $end
$var wire 1 ` inst|inst|inst5~q $end
$var wire 1 a BranchOffset[1]~input_o $end
$var wire 1 b JumpAddress[1]~input_o $end
$var wire 1 c inst12|auto_generated|l2_w3_n0_mux_dataout~0_combout $end
$var wire 1 d inst|inst|inst4~q $end
$var wire 1 e inst8|inst|inst3|inst5~combout $end
$var wire 1 f inst5|inst1|inst|inst3~combout $end
$var wire 1 g inst12|auto_generated|l2_w4_n0_mux_dataout~0_combout $end
$var wire 1 h inst|inst|inst3~q $end
$var wire 1 i inst8|inst1|inst|inst5~0_combout $end
$var wire 1 j BranchOffset[3]~input_o $end
$var wire 1 k JumpAddress[3]~input_o $end
$var wire 1 l inst5|inst1|inst1|inst3~combout $end
$var wire 1 m inst12|auto_generated|l2_w5_n0_mux_dataout~0_combout $end
$var wire 1 n inst|inst|inst2~q $end
$var wire 1 o JumpAddress[4]~input_o $end
$var wire 1 p BranchOffset[4]~input_o $end
$var wire 1 q inst5|inst1|inst2|inst3~combout $end
$var wire 1 r inst8|inst1|inst2|inst3~combout $end
$var wire 1 s inst12|auto_generated|l2_w6_n0_mux_dataout~0_combout $end
$var wire 1 t inst|inst|inst1~q $end
$var wire 1 u JumpAddress[5]~input_o $end
$var wire 1 v inst8|inst1|inst2|inst5~0_combout $end
$var wire 1 w inst12|auto_generated|l2_w7_n0_mux_dataout~0_combout $end
$var wire 1 x inst|inst|inst~q $end
$var wire 1 y inst5|inst1|inst3|inst3~combout $end
$var wire 1 z inst8|inst1|inst3|inst5~0_combout $end
$var wire 1 { BranchOffset[6]~input_o $end
$var wire 1 | BranchOffset[7]~input_o $end
$var wire 1 } inst5|inst1|inst3|inst1~combout $end
$var wire 1 ~ JumpAddress[6]~input_o $end
$var wire 1 !! inst5|inst2|inst|inst3~combout $end
$var wire 1 "! inst12|auto_generated|l2_w8_n0_mux_dataout~0_combout $end
$var wire 1 #! inst|inst1|inst7~q $end
$var wire 1 $! inst5|inst2|inst1|inst3~combout $end
$var wire 1 %! inst8|inst2|inst1|inst3~combout $end
$var wire 1 &! inst12|auto_generated|l2_w9_n0_mux_dataout~0_combout $end
$var wire 1 '! inst|inst1|inst6~q $end
$var wire 1 (! inst8|inst2|inst1|inst~combout $end
$var wire 1 )! inst8|inst2|inst1|inst5~0_combout $end
$var wire 1 *! inst8|inst2|inst1|inst5~1_combout $end
$var wire 1 +! inst8|inst2|inst1|inst5~2_combout $end
$var wire 1 ,! BranchOffset[8]~input_o $end
$var wire 1 -! JumpAddress[8]~input_o $end
$var wire 1 .! inst5|inst2|inst2|inst3~combout $end
$var wire 1 /! inst12|auto_generated|l2_w10_n0_mux_dataout~0_combout $end
$var wire 1 0! inst|inst1|inst5~q $end
$var wire 1 1! BranchOffset[9]~input_o $end
$var wire 1 2! inst5|inst2|inst3|inst3~combout $end
$var wire 1 3! JumpAddress[9]~input_o $end
$var wire 1 4! inst8|inst2|inst2|inst5~0_combout $end
$var wire 1 5! inst12|auto_generated|l2_w11_n0_mux_dataout~0_combout $end
$var wire 1 6! inst|inst1|inst4~q $end
$var wire 1 7! BranchOffset[10]~input_o $end
$var wire 1 8! JumpAddress[10]~input_o $end
$var wire 1 9! inst5|inst3|inst|inst3~combout $end
$var wire 1 :! inst8|inst2|inst3|inst5~0_combout $end
$var wire 1 ;! inst12|auto_generated|l2_w12_n0_mux_dataout~0_combout $end
$var wire 1 <! inst|inst1|inst3~q $end
$var wire 1 =! inst5|inst3|inst|inst1~combout $end
$var wire 1 >! inst5|inst3|inst1|inst3~combout $end
$var wire 1 ?! JumpAddress[11]~input_o $end
$var wire 1 @! BranchOffset[11]~input_o $end
$var wire 1 A! inst8|inst3|inst1|inst3~combout $end
$var wire 1 B! inst12|auto_generated|l2_w13_n0_mux_dataout~0_combout $end
$var wire 1 C! inst|inst1|inst2~q $end
$var wire 1 D! BranchOffset[12]~input_o $end
$var wire 1 E! JumpAddress[12]~input_o $end
$var wire 1 F! inst8|inst3|inst1|inst5~0_combout $end
$var wire 1 G! inst5|inst3|inst2|inst3~combout $end
$var wire 1 H! inst12|auto_generated|l2_w14_n0_mux_dataout~0_combout $end
$var wire 1 I! inst|inst1|inst1~q $end
$var wire 1 J! inst5|inst3|inst3|inst3~combout $end
$var wire 1 K! BranchOffset[13]~input_o $end
$var wire 1 L! inst8|inst3|inst2|inst~combout $end
$var wire 1 M! inst8|inst3|inst2|inst5~0_combout $end
$var wire 1 N! inst8|inst3|inst2|inst5~1_combout $end
$var wire 1 O! JumpAddress[13]~input_o $end
$var wire 1 P! inst12|auto_generated|l2_w15_n0_mux_dataout~0_combout $end
$var wire 1 Q! inst|inst1|inst~q $end
$var wire 1 R! JumpAddress[14]~input_o $end
$var wire 1 S! BranchOffset[14]~input_o $end
$var wire 1 T! inst5|inst4|inst|inst3~combout $end
$var wire 1 U! inst8|inst3|inst3|inst5~0_combout $end
$var wire 1 V! inst12|auto_generated|l2_w16_n0_mux_dataout~0_combout $end
$var wire 1 W! inst|inst2|inst7~q $end
$var wire 1 X! JumpAddress[15]~input_o $end
$var wire 1 Y! inst5|inst4|inst1|inst3~combout $end
$var wire 1 Z! inst8|inst4|inst|inst5~0_combout $end
$var wire 1 [! inst12|auto_generated|l2_w17_n0_mux_dataout~0_combout $end
$var wire 1 \! inst|inst2|inst6~q $end
$var wire 1 ]! inst5|inst4|inst1|inst1~combout $end
$var wire 1 ^! inst5|inst4|inst2|inst3~combout $end
$var wire 1 _! JumpAddress[16]~input_o $end
$var wire 1 `! inst12|auto_generated|l2_w18_n0_mux_dataout~0_combout $end
$var wire 1 a! inst|inst2|inst5~q $end
$var wire 1 b! JumpAddress[17]~input_o $end
$var wire 1 c! inst8|inst4|inst3|inst3~combout $end
$var wire 1 d! inst12|auto_generated|l2_w19_n0_mux_dataout~0_combout $end
$var wire 1 e! inst|inst2|inst4~q $end
$var wire 1 f! inst5|inst4|inst3|inst3~combout $end
$var wire 1 g! JumpAddress[18]~input_o $end
$var wire 1 h! inst8|inst4|inst3|inst5~0_combout $end
$var wire 1 i! inst12|auto_generated|l2_w20_n0_mux_dataout~0_combout $end
$var wire 1 j! inst|inst2|inst3~q $end
$var wire 1 k! inst5|inst5|inst|inst3~combout $end
$var wire 1 l! inst8|inst5|inst|inst5~0_combout $end
$var wire 1 m! inst5|inst5|inst1|inst3~combout $end
$var wire 1 n! inst12|auto_generated|l2_w21_n0_mux_dataout~0_combout $end
$var wire 1 o! inst|inst2|inst2~q $end
$var wire 1 p! inst5|inst5|inst1|inst1~combout $end
$var wire 1 q! inst5|inst5|inst2|inst3~combout $end
$var wire 1 r! inst8|inst5|inst2|inst3~0_combout $end
$var wire 1 s! inst8|inst5|inst2|inst3~combout $end
$var wire 1 t! inst12|auto_generated|l2_w22_n0_mux_dataout~0_combout $end
$var wire 1 u! inst|inst2|inst1~q $end
$var wire 1 v! inst5|inst5|inst3|inst3~combout $end
$var wire 1 w! inst8|inst5|inst3|inst3~0_combout $end
$var wire 1 x! inst8|inst5|inst3|inst3~combout $end
$var wire 1 y! inst12|auto_generated|l2_w23_n0_mux_dataout~0_combout $end
$var wire 1 z! inst|inst2|inst~q $end
$var wire 1 {! inst5|inst6|inst|inst3~combout $end
$var wire 1 |! inst8|inst5|inst3|inst5~0_combout $end
$var wire 1 }! inst12|auto_generated|l2_w24_n0_mux_dataout~0_combout $end
$var wire 1 ~! inst|inst3|inst7~q $end
$var wire 1 !" inst5|inst6|inst|inst1~combout $end
$var wire 1 "" inst5|inst6|inst1|inst3~combout $end
$var wire 1 #" inst8|inst6|inst|inst5~0_combout $end
$var wire 1 $" inst12|auto_generated|l2_w25_n0_mux_dataout~0_combout $end
$var wire 1 %" inst|inst3|inst6~q $end
$var wire 1 &" JumpAddress[24]~input_o $end
$var wire 1 '" inst12|auto_generated|l2_w26_n0_mux_dataout~1_combout $end
$var wire 1 (" inst5|inst6|inst2|inst3~combout $end
$var wire 1 )" inst12|auto_generated|l2_w26_n0_mux_dataout~0_combout $end
$var wire 1 *" inst|inst3|inst5~q $end
$var wire 1 +" JumpAddress[25]~input_o $end
$var wire 1 ," inst12|auto_generated|l2_w27_n0_mux_dataout~1_combout $end
$var wire 1 -" inst5|inst6|inst3|inst3~combout $end
$var wire 1 ." inst12|auto_generated|l2_w27_n0_mux_dataout~0_combout $end
$var wire 1 /" inst|inst3|inst4~q $end
$var wire 1 0" inst5|inst7|inst|inst3~combout $end
$var wire 1 1" inst12|auto_generated|l2_w31_n0_mux_dataout~0_combout $end
$var wire 1 2" inst12|auto_generated|l2_w28_n0_mux_dataout~1_combout $end
$var wire 1 3" inst12|auto_generated|l2_w28_n0_mux_dataout~0_combout $end
$var wire 1 4" inst|inst3|inst3~q $end
$var wire 1 5" inst5|inst6|inst3|inst1~combout $end
$var wire 1 6" inst12|auto_generated|l2_w29_n0_mux_dataout~1_combout $end
$var wire 1 7" inst12|auto_generated|l2_w29_n0_mux_dataout~0_combout $end
$var wire 1 8" inst|inst3|inst2~q $end
$var wire 1 9" inst5|inst7|inst1|inst3~combout $end
$var wire 1 :" inst12|auto_generated|l2_w31_n0_mux_dataout~3_combout $end
$var wire 1 ;" inst12|auto_generated|l2_w30_n0_mux_dataout~1_combout $end
$var wire 1 <" inst12|auto_generated|l2_w30_n0_mux_dataout~0_combout $end
$var wire 1 =" inst|inst3|inst1~q $end
$var wire 1 >" inst5|inst7|inst2|inst3~combout $end
$var wire 1 ?" inst12|auto_generated|l2_w31_n0_mux_dataout~2_combout $end
$var wire 1 @" inst12|auto_generated|l2_w31_n0_mux_dataout~1_combout $end
$var wire 1 A" inst|inst3|inst~q $end
$upscope $end
$upscope $end
$enddefinitions $end
#0
$dumpvars
0!
b10100 "
0#
0$
b1111101000 %
0&
0'
0(
0)
0*
0+
0,
0-
0.
0/
00
01
02
03
04
05
06
07
08
09
0:
0;
0<
0=
0>
0?
0@
0A
0B
0C
0D
0E
0F
0G
1H
xI
1J
1K
1L
0M
0N
0O
0P
0Q
0R
0S
0T
0U
0V
0W
1X
0Y
1Z
0[
0\
0]
1^
0_
0`
0a
0b
0c
0d
0e
0f
0g
0h
0i
0j
1k
0l
0m
0n
0o
1p
0q
1r
0s
0t
1u
0v
0w
0x
0y
0z
0{
0|
0}
1~
0!!
0"!
0#!
0$!
0%!
0&!
0'!
0(!
1)!
0*!
1+!
0,!
1-!
0.!
0/!
00!
01!
02!
13!
04!
05!
06!
07!
08!
09!
1:!
0;!
0<!
0=!
0>!
0?!
0@!
0A!
0B!
0C!
0D!
0E!
0F!
0G!
0H!
0I!
0J!
0K!
0L!
1M!
0N!
0O!
0P!
0Q!
0R!
0S!
0T!
1U!
0V!
0W!
0X!
0Y!
0Z!
0[!
0\!
0]!
0^!
0_!
0`!
0a!
0b!
0c!
0d!
0e!
0f!
0g!
0h!
0i!
0j!
0k!
0l!
0m!
0n!
0o!
0p!
0q!
0r!
0s!
0t!
0u!
0v!
0w!
0x!
0y!
0z!
0{!
0|!
0}!
0~!
0!"
0""
0#"
0$"
0%"
0&"
0'"
0("
0)"
0*"
0+"
1,"
0-"
0."
0/"
00"
01"
02"
03"
04"
05"
06"
07"
08"
09"
0:"
0;"
0<"
0="
0>"
0?"
0@"
0A"
$end
#10000
1#
1N
1O
#20000
1&
0#
1_
0N
0O
#30000
1#
1N
1O
1`
1)
1c
0^
#40000
0#
0N
0O
#50000
1#
1N
1O
1d
0`
0)
1*
1^
#60000
0#
0N
0O
#70000
1#
1N
1O
1`
1)
1i
1f
0c
0^
1g
#80000
0#
0N
0O
#90000
1#
1N
1O
1h
0d
0`
0)
0*
1+
1^
#100000
1!
0#
1U
0N
0O
11"
0,"
1m
0g
1."
1s
0."
#110000
1#
1N
1O
1t
1n
0h
1`
1)
0+
1,
1-
1q
1l
0i
0f
1c
0^
1g
1v
0r
1w
0s
#120000
0#
0N
0O
#130000
1#
1N
1O
1x
0t
1h
1d
0`
0)
1*
1+
0-
1.
1y
0q
1i
1f
1^
0g
0m
1z
0w
1"!
#140000
0#
0N
0O
#150000
1#
1N
1O
1#!
0x
0n
0h
1`
1)
0+
0,
0.
1/
0y
0l
0c
0^
1!!
1%!
0v
1r
1m
0z
1w
0"!
0%!
0w
1"!
1s
1&!
0&!
#160000
0#
0N
0O
#170000
1#
1N
1O
1t
1n
0d
0`
0)
0*
1,
1-
1q
1l
0i
0f
1^
1g
1v
0r
1w
0s
#180000
0#
0N
0O
#190000
1#
1N
1O
1x
0t
1h
1`
1)
1+
0-
1.
1y
0q
1i
1f
1c
0^
0g
0m
1z
0w
1%!
0"!
1&!
#200000
1$
0!
0#
1S
0U
0N
0O
01"
1,"
1w
1m
0c
1."
15!
1/!
1"!
0."
#210000
1#
1N
1O
16!
10!
1'!
0h
0`
0)
0+
10
11
12
0i
0f
12!
1.!
0)!
1$!
0%!
1*!
0v
1r
0*!
0z
0:!
0+!
14!
1%!
1:!
1+!
04!
#220000
0#
0N
0O
#230000
1#
1N
1O
#240000
0#
0N
0O
#250000
1#
1N
1O
#260000
0#
0N
0O
#270000
1#
1N
1O
#280000
b111101000 %
b111111000 %
b111110000 %
b111110100 %
0#
1\
0k
1o
03!
0N
0O
0m
1g
05!
1s
#290000
1#
1N
1O
06!
1t
0n
1h
1+
0,
1-
02
1q
0l
1i
1f
02!
1v
0r
1*!
1z
0%!
0+!
14!
#300000
0#
0N
0O
#310000
1#
1N
1O
#320000
0$
0#
0S
0N
0O
1^
#330000
1#
1N
1O
1`
1)
1c
0^
#340000
0#
0N
0O
#350000
1#
1N
1O
1d
0`
0)
1*
1^
#360000
0#
0N
0O
#370000
1#
1N
1O
1`
1)
1l
0i
0f
0c
0^
0g
1m
#380000
0#
0N
0O
#390000
1#
1N
1O
1n
0h
0d
0`
0)
0*
0+
1,
1^
#400000
b100 "
b0 "
b11110100 %
b1110100 %
b110100 %
b10100 %
b100 %
b0 %
0#
0\
0o
0u
0~
0X
0-!
0Z
0p
0N
0O
0v
1r
0*!
0z
1%!
1+!
04!
#410000
1#
1N
1O
1`
1)
1c
0^
#420000
0#
0N
0O
#430000
1#
1N
1O
1d
0`
0)
1*
1^
#440000
0#
0N
0O
#450000
1#
1N
1O
1`
1)
1f
0c
0^
1g
#460000
0#
0N
0O
#470000
1#
1N
1O
1h
0d
0`
0)
0*
1+
1^
#480000
0#
0N
0O
#490000
1#
1N
1O
1`
1)
1c
0^
#500000
0#
0N
0O
#510000
1#
1N
1O
1d
0`
0)
1*
1^
#520000
0#
0N
0O
#530000
1#
1N
1O
1`
1)
1}
0y
0q
0l
0f
0c
0^
0g
0r
0m
0w
12!
0.!
1)!
0$!
0!!
0s
0%!
0"!
0&!
0/!
15!
#540000
0#
0N
0O
#550000
1#
1N
1O
16!
00!
0'!
0#!
0x
0t
0n
0h
0d
0`
0)
0*
0+
0,
0-
0.
0/
00
01
12
0}
1^
1!!
0!!
1"!
0"!
#560000
0#
0N
0O
#570000
1#
1N
1O
1`
1)
1c
0^
#580000
0#
0N
0O
#590000
1#
1N
1O
1d
0`
0)
1*
1^
#600000
0#
0N
0O
#610000
1#
1N
1O
1`
1)
1f
0c
0^
1g
#620000
0#
0N
0O
#630000
1#
1N
1O
1h
0d
0`
0)
0*
1+
1^
#640000
0#
0N
0O
#650000
1#
1N
1O
1`
1)
1c
0^
#660000
0#
0N
0O
#670000
1#
1N
1O
1d
0`
0)
1*
1^
#680000
0#
0N
0O
#690000
1#
1N
1O
1`
1)
1l
0f
0c
0^
0g
1m
#700000
0#
0N
0O
#710000
1#
1N
1O
1n
0h
0d
0`
0)
0*
0+
1,
1^
#720000
0#
0N
0O
#730000
1#
1N
1O
1`
1)
1c
0^
#740000
0#
0N
0O
#750000
1#
1N
1O
1d
0`
0)
1*
1^
#760000
0#
0N
0O
#770000
1#
1N
1O
1`
1)
1f
0c
0^
1g
#780000
0#
0N
0O
#790000
1#
1N
1O
1h
0d
0`
0)
0*
1+
1^
#800000
0#
0N
0O
#810000
1#
1N
1O
1`
1)
1c
0^
#820000
0#
0N
0O
#830000
1#
1N
1O
1d
0`
0)
1*
1^
#840000
0#
0N
0O
#850000
1#
1N
1O
1`
1)
1q
0l
0f
0c
0^
0g
1r
0m
1s
#860000
0#
0N
0O
#870000
1#
1N
1O
1t
0n
0h
0d
0`
0)
0*
0+
0,
1-
1^
#880000
0&
0#
0_
0N
0O
#890000
1#
1N
1O
06!
0t
0-
02
0q
02!
0r
05!
0s
#900000
0#
0N
0O
#910000
1#
1N
1O
#920000
0#
0N
0O
#930000
1#
1N
1O
#940000
0#
0N
0O
#950000
1#
1N
1O
#960000
0#
0N
0O
#970000
1#
1N
1O
#980000
0#
0N
0O
#990000
1#
1N
1O
